...
----------------------------------------------------------------------
Ran 3 tests in 0.001s

OK
Name                                                                                   Stmts   Miss Branch BrPart  Cover   Missing
----------------------------------------------------------------------------------------------------------------------------------
Netflix.py                                                                                41      3      6      1    91%   26-29, 22->26
TestNetflix.py                                                                            23      0      0      0   100%
/usr/lib/python3/dist-packages/OpenSSL/SSL.py                                            912    665    254      2    22%   117-119, 201-205, 288, 295-300, 310-338, 348-377, 389-425, 438-476, 506-552, 578-611, 615-630, 639, 654-657, 706-749, 763-777, 780-783, 795-802, 814-838, 849, 864-872, 883-889, 901-909, 918-923, 932-940, 943-946, 957-967, 976-981, 989-990, 1001-1005, 1018-1019, 1035-1038, 1044, 1057-1065, 1074-1077, 1085, 1093, 1104-1113, 1125, 1137-1142, 1157-1179, 1192-1197, 1206-1209, 1217, 1226-1231, 1239, 1248, 1256-1263, 1272-1275, 1284-1287, 1298-1305, 1320-1322, 1336-1338, 1354-1361, 1373-1375, 1384-1396, 1413-1414, 1433-1434, 1456-1495, 1502-1507, 1510-1548, 1554, 1563-1567, 1577-1583, 1592-1598, 1606, 1620-1633, 1647-1670, 1681-1687, 1704-1729, 1732-1747, 1757-1768, 1778-1786, 1795-1798, 1807-1808, 1818, 1827, 1836-1837, 1847-1849, 1858-1861, 1870-1873, 1883-1889, 1897-1903, 1916-1930, 1939, 1948, 1957, 1966, 1975-1978, 1987, 1995-2002, 2010-2018, 2026-2034, 2045-2058, 2066, 2074-2077, 2086-2096, 2105, 2114, 2123, 2132, 2141-2147, 2156-2161, 2187-2195, 2205, 2215, 2225-2230, 2240-2244, 2254-2259, 2270-2271, 2281-2282, 2289-2294, 2309-2316, 2323-2331, 2340-2343, 200->201, 653->654
/usr/lib/python3/dist-packages/OpenSSL/__init__.py                                         4      0      0      0   100%
/usr/lib/python3/dist-packages/OpenSSL/_util.py                                           53     32     22      1    29%   29-31, 43-54, 66-67, 82-90, 102-107, 112-115, 140-147, 110->114
/usr/lib/python3/dist-packages/OpenSSL/crypto.py                                        1148    918    364      1    15%   94-95, 104, 116-130, 137-139, 156-161, 174-201, 206, 209, 212-214, 225-227, 240-244, 258-267, 285-323, 338-349, 357, 365, 395-397, 409-415, 429-431, 448, 463-465, 468, 477-478, 493, 508-511, 546-547, 550-583, 592-623, 627-630, 646-651, 664, 673-679, 688-704, 741-778, 782, 793-811, 817-824, 832, 845-847, 858-862, 878-881, 891-895, 909-914, 925-926, 935-940, 950-951, 961, 975-983, 993-1006, 1017-1023, 1036-1047, 1061-1068, 1083-1088, 1092-1096, 1106-1108, 1122-1127, 1138-1141, 1150, 1159-1165, 1176-1180, 1194-1208, 1221-1225, 1238-1250, 1261, 1272-1300, 1309-1320, 1330-1334, 1343-1347, 1356-1359, 1362, 1375, 1378, 1391, 1404, 1417, 1420-1428, 1431-1434, 1448-1450, 1461-1462, 1476-1478, 1489-1490, 1501, 1511-1517, 1533-1540, 1588-1589, 1607-1610, 1626, 1650, 1668-1672, 1692-1693, 1715-1722, 1731-1735, 1743, 1753-1764, 1775, 1792-1797, 1810-1826, 1838-1852, 1865-1877, 1896-1936, 1959-1960, 1973-1983, 1995-2001, 2004-2010, 2028-2046, 2060-2073, 2085, 2095-2096, 2105-2106, 2115-2116, 2126-2130, 2144-2149, 2161-2170, 2183-2187, 2197-2202, 2213, 2216, 2231, 2246, 2265-2271, 2288-2324, 2341, 2349, 2357, 2365, 2373-2375, 2391-2394, 2403, 2414-2416, 2425, 2436-2438, 2448-2449, 2461-2470, 2481-2487, 2496, 2518-2556, 2572-2573, 2587-2600, 2614-2617, 2626-2629, 2638-2643, 2652-2653, 2665-2672, 2676-2683, 2689-2696, 2701-2709, 2712-2731, 2745-2764, 2779-2799, 2810-2826, 2837-2853, 2865-2885, 2898-2918, 2932-2946, 2958-2975, 2986-3003, 3014-3086, 386->399
/usr/lib/python3/dist-packages/OpenSSL/version.py                                         10      0      0      0   100%
/usr/lib/python3/dist-packages/asn1crypto/__init__.py                                      3      0      0      0   100%
/usr/lib/python3/dist-packages/asn1crypto/_elliptic_curve.py                              90     46     32      4    43%   120, 124, 134-137, 150-168, 180-184, 191-211, 222, 232-240, 119->120, 123->124, 187->189, 189->191
/usr/lib/python3/dist-packages/asn1crypto/_errors.py                                      12      7      4      0    31%   33-45
/usr/lib/python3/dist-packages/asn1crypto/_ffi.py                                         13      3      0      0    77%   19, 23, 27
/usr/lib/python3/dist-packages/asn1crypto/_int.py                                         54     42     14      1    19%   53, 72-139, 157-159, 52->53
/usr/lib/python3/dist-packages/asn1crypto/_iri.py                                        140    124     76      1     8%   22-23, 48-114, 128-166, 182-184, 204-239, 262-288, 21->22
/usr/lib/python3/dist-packages/asn1crypto/_ordereddict.py                                 91     88     30      1     3%   31-135, 25->31
/usr/lib/python3/dist-packages/asn1crypto/_perf/__init__.py                                0      0      0      0   100%
/usr/lib/python3/dist-packages/asn1crypto/_perf/_big_num_ctypes.py                        31      3      2      1    88%   37, 68-69, 36->37
/usr/lib/python3/dist-packages/asn1crypto/_teletex_codec.py                               26      7      2      0    68%   17, 20, 26, 32, 50-53
/usr/lib/python3/dist-packages/asn1crypto/_types.py                                       23     13      8      1    35%   9-16, 26, 40-46, 8->9
/usr/lib/python3/dist-packages/asn1crypto/algos.py                                       273    159    112      0    30%   75-83, 96-104, 291-317, 332-357, 538-540, 551-558, 659-682, 700-718, 735-763, 780-797, 821-894, 911-928, 947-977, 993-1028, 1046-1076, 1123-1126, 1139-1143
/usr/lib/python3/dist-packages/asn1crypto/core.py                                       1967   1599   1018     14    13%   66-69, 165, 222-230, 288, 290, 295-302, 305-312, 316-323, 332-362, 365-384, 387-395, 398, 401, 404, 407-412, 423-426, 434-437, 447, 457, 467-472, 482-484, 497-500, 510, 528-532, 542-544, 558-568, 575-590, 604-619, 641-646, 668-690, 713-731, 743-745, 759-761, 781, 784, 787, 790, 801, 815, 840-858, 869-872, 883-886, 906-936, 950-951, 965-968, 1018-1022, 1029-1038, 1058-1122, 1130-1132, 1142-1151, 1160, 1171, 1191-1227, 1243, 1257-1260, 1274-1280, 1312, 1331-1357, 1368-1371, 1378, 1386, 1394, 1404-1406, 1419-1422, 1432, 1446-1455, 1462-1466, 1480-1483, 1492, 1500, 1516-1525, 1542-1561, 1569, 1595-1610, 1620-1633, 1647-1652, 1655, 1666-1692, 1716-1732, 1740-1744, 1758-1759, 1770-1773, 1791-1795, 1803, 1810, 1821-1826, 1847-1882, 1889, 1900-1907, 1928-1932, 1945-2032, 2049-2079, 2095-2136, 2146-2166, 2179-2195, 2225-2242, 2250-2254, 2268-2269, 2280-2283, 2306-2323, 2333-2344, 2355-2367, 2388-2404, 2412-2416, 2430-2431, 2442-2445, 2466-2482, 2493-2498, 2524-2532, 2542-2558, 2578-2581, 2589-2593, 2607-2609, 2620-2626, 2637-2640, 2654-2662, 2686-2703, 2723, 2734, 2764-2780, 2798-2830, 2844-2880, 2888, 2898-2917, 2930-2937, 2983-3013, 3024-3029, 3119-3170, 3179-3185, 3194, 3203-3209, 3216-3219, 3227-3230, 3247-3276, 3294-3333, 3347-3378, 3386-3387, 3399-3424, 3431-3451, 3469-3498, 3523-3571, 3586-3706, 3724-3745, 3757-3778, 3792-3799, 3806-3815, 3829-3845, 3890-3913, 3922-3928, 3937, 3946-3952, 3959-3963, 3977-4018, 4026-4029, 4040-4043, 4058-4074, 4085-4092, 4101-4105, 4116-4134, 4146-4154, 4165-4174, 4189-4209, 4220, 4232-4244, 4258-4265, 4272-4278, 4292-4295, 4317-4337, 4352-4448, 4462-4481, 4504-4514, 4583-4612, 4633-4641, 4654-4668, 4691-4699, 4713-4741, 4813-4842, 4853-4861, 4879-4901, 4920-4946, 5022-5204, 5237-5242, 65->66, 283->294, 287->288, 289->290, 294->295, 304->305, 315->316, 330->332, 364->365, 386->387, 397->398, 400->401, 403->404, 406->407
/usr/lib/python3/dist-packages/asn1crypto/keys.py                                        353    234    132      0    25%   160-169, 180-198, 504-505, 535-586, 597-659, 670-688, 706-722, 737-748, 757-759, 768-779, 788, 798-808, 817, 839-883, 976-977, 1012-1038, 1049-1054, 1079-1095, 1111-1126, 1135-1137, 1146-1159, 1168, 1177-1179, 1188-1190, 1206-1249
/usr/lib/python3/dist-packages/asn1crypto/parser.py                                       98     86     52      0     8%   50-71, 103-110, 132-136, 163-232, 266-289
/usr/lib/python3/dist-packages/asn1crypto/util.py                                        287    220    124      2    17%   29, 37-128, 156-167, 183, 224-235, 248-265, 276, 290-293, 304-316, 323-326, 329, 332, 335-337, 340, 343, 352-373, 376, 379, 382, 385, 427-455, 463, 471, 479-481, 489-491, 500-502, 515-541, 557-559, 573-576, 588-610, 622-625, 628, 631-634, 637-639, 642, 653, 663-700, 703, 706, 709, 712, 28->29, 35->37
/usr/lib/python3/dist-packages/asn1crypto/version.py                                       3      0      0      0   100%
/usr/lib/python3/dist-packages/certifi/__init__.py                                         2      0      0      0   100%
/usr/lib/python3/dist-packages/certifi/core.py                                            11      3      2      1    69%   26-32, 35, 34->35
/usr/lib/python3/dist-packages/chardet/__init__.py                                        11      7      4      0    27%   31-39
/usr/lib/python3/dist-packages/chardet/big5freq.py                                         3      0      0      0   100%
/usr/lib/python3/dist-packages/chardet/big5prober.py                                      14      6      0      0    57%   36-39, 43, 47
/usr/lib/python3/dist-packages/chardet/chardistribution.py                               117     83     32      0    23%   49-59, 65-68, 72-82, 88-98, 103, 110, 115-118, 125-129, 134-137, 144-148, 153-156, 163-167, 172-175, 182-189, 194-197, 204-214, 219-222, 229-233
/usr/lib/python3/dist-packages/chardet/charsetgroupprober.py                              70     61     40      0     8%   34-37, 40-47, 51-55, 59-63, 66-83, 86-106
/usr/lib/python3/dist-packages/chardet/charsetprober.py                                   50     36     16      0    21%   40-42, 45, 49, 52, 56, 59, 63-64, 81-101, 115-145
/usr/lib/python3/dist-packages/chardet/codingstatemachine.py                              27     18      2      0    31%   56-61, 64, 69-78, 81, 84, 88
/usr/lib/python3/dist-packages/chardet/compat.py                                          10      4      2      1    58%   26-29, 25->26
/usr/lib/python3/dist-packages/chardet/cp949prober.py                                     14      6      0      0    57%   36-41, 45, 49
/usr/lib/python3/dist-packages/chardet/enums.py                                           34      1      0      0    97%   62
/usr/lib/python3/dist-packages/chardet/escprober.py                                       56     45     24      0    14%   43-56, 59-67, 71, 75, 78-81, 84-101
/usr/lib/python3/dist-packages/chardet/escsm.py                                           17      0      0      0   100%
/usr/lib/python3/dist-packages/chardet/eucjpprober.py                                     47     34     14      0    21%   38-42, 45-46, 50, 54, 57-87, 90-92
/usr/lib/python3/dist-packages/chardet/euckrfreq.py                                        3      0      0      0   100%
/usr/lib/python3/dist-packages/chardet/euckrprober.py                                     14      6      0      0    57%   36-39, 43, 47
/usr/lib/python3/dist-packages/chardet/euctwfreq.py                                        3      0      0      0   100%
/usr/lib/python3/dist-packages/chardet/euctwprober.py                                     14      6      0      0    57%   35-38, 42, 46
/usr/lib/python3/dist-packages/chardet/gb2312freq.py                                       3      0      0      0   100%
/usr/lib/python3/dist-packages/chardet/gb2312prober.py                                    14      6      0      0    57%   35-38, 42, 46
/usr/lib/python3/dist-packages/chardet/hebrewprober.py                                    74     48     26      0    26%   155-162, 165-171, 175-176, 179, 193, 223-253, 259-280, 284, 289-292
/usr/lib/python3/dist-packages/chardet/jisfreq.py                                          3      0      0      0   100%
/usr/lib/python3/dist-packages/chardet/jpcntx.py                                          80     61     32      0    17%   124-129, 132-141, 144-168, 171, 175-178, 181, 185-186, 190, 193-210, 214-231
/usr/lib/python3/dist-packages/chardet/langbulgarianmodel.py                               5      0      0      0   100%
/usr/lib/python3/dist-packages/chardet/langcyrillicmodel.py                               13      0      0      0   100%
/usr/lib/python3/dist-packages/chardet/langgreekmodel.py                                   5      0      0      0   100%
/usr/lib/python3/dist-packages/chardet/langhebrewmodel.py                                  3      0      0      0   100%
/usr/lib/python3/dist-packages/chardet/langthaimodel.py                                    3      0      0      0   100%
/usr/lib/python3/dist-packages/chardet/langturkishmodel.py                                 3      0      0      0   100%
/usr/lib/python3/dist-packages/chardet/latin1prober.py                                    50     29     10      0    35%   98-101, 104-106, 110, 114, 117-128, 131-145
/usr/lib/python3/dist-packages/chardet/mbcharsetprober.py                                 42     33     18      0    15%   40-43, 46-51, 55, 59, 62-88, 91
/usr/lib/python3/dist-packages/chardet/mbcsgroupprober.py                                 14      3      0      0    79%   43-54
/usr/lib/python3/dist-packages/chardet/mbcssm.py                                          41      0      0      0   100%
/usr/lib/python3/dist-packages/chardet/sbcharsetprober.py                                 73     60     30      0    13%   40-51, 54-61, 65-68, 72-75, 78-122, 125-132
/usr/lib/python3/dist-packages/chardet/sbcsgroupprober.py                                 19      8      0      0    58%   45-73
/usr/lib/python3/dist-packages/chardet/sjisprober.py                                      47     34     14      0    21%   38-42, 45-46, 50, 54, 57-87, 90-92
/usr/lib/python3/dist-packages/chardet/universaldetector.py                              124    104     80      0    10%   82-92, 100-109, 125-218, 229-286
/usr/lib/python3/dist-packages/chardet/utf8prober.py                                      41     29     16      0    21%   39-42, 45-47, 51, 55, 58-74, 77-82
/usr/lib/python3/dist-packages/chardet/version.py                                          2      0      0      0   100%
/usr/lib/python3/dist-packages/cryptography/__about__.py                                  10      0      0      0   100%
/usr/lib/python3/dist-packages/cryptography/__init__.py                                    7      1      2      1    78%   22, 21->22
/usr/lib/python3/dist-packages/cryptography/exceptions.py                                 34      4      0      0    88%   26-27, 52-53
/usr/lib/python3/dist-packages/cryptography/hazmat/__init__.py                             2      0      0      0   100%
/usr/lib/python3/dist-packages/cryptography/hazmat/backends/__init__.py                    7      4      2      0    33%   14-18
/usr/lib/python3/dist-packages/cryptography/hazmat/backends/interfaces.py                 85      0     26      0   100%
/usr/lib/python3/dist-packages/cryptography/hazmat/backends/openssl/__init__.py            3      0      0      0   100%
/usr/lib/python3/dist-packages/cryptography/hazmat/backends/openssl/aead.py               87     76     18      0    10%   15-24, 28-66, 70-78, 82-86, 90-94, 98-121, 125-159
/usr/lib/python3/dist-packages/cryptography/hazmat/backends/openssl/backend.py          1067    865    235      3    17%   112-117, 150-156, 165, 170, 173, 176-183, 186-188, 191, 194, 197-202, 206, 269, 272, 275, 279-294, 297, 300-316, 325-347, 350-365, 368, 372-403, 406-416, 419-422, 425-428, 437-443, 449-454, 460-465, 473-496, 504-527, 530-541, 544-558, 561-575, 578-584, 587-588, 591-594, 597-613, 616-630, 633-644, 647-650, 653, 656, 659, 664, 667-739, 742-831, 834-841, 847-930, 934-945, 948-949, 954-976, 981-1008, 1011, 1019-1041, 1044-1052, 1059-1066, 1074-1085, 1088-1108, 1111-1130, 1133-1142, 1145-1152, 1155-1164, 1167-1174, 1177-1186, 1189-1196, 1199-1247, 1250-1292, 1295-1315, 1321-1324, 1331-1345, 1351-1369, 1372-1382, 1385-1419, 1422, 1428-1431, 1438-1451, 1455-1462, 1469-1490, 1498-1510, 1514-1591, 1594-1605, 1608-1649, 1652-1683, 1690-1717, 1720-1738, 1741-1744, 1747-1754, 1757, 1761-1806, 1809-1833, 1836-1851, 1854-1873, 1876, 1879-1887, 1890-1897, 1913-1918, 1921-1935, 1938, 1941-1947, 1950-1951, 1961-1962, 1966-1967, 102->exit, 111->112, 205->206
/usr/lib/python3/dist-packages/cryptography/hazmat/backends/openssl/ciphers.py           105     86     36      0    15%   22-116, 119-121, 124-137, 145-194, 197-216, 219-223
/usr/lib/python3/dist-packages/cryptography/hazmat/backends/openssl/cmac.py               44     31      8      0    29%   19-44, 49-50, 53-62, 65-73, 78-80
/usr/lib/python3/dist-packages/cryptography/hazmat/backends/openssl/decode_asn1.py       397    329    119     10    14%   33-45, 49-57, 61-75, 79-86, 90-159, 168, 172-174, 178-180, 190-243, 247-282, 286-312, 316-328, 332-336, 342-361, 367-379, 383-395, 409-412, 416, 422, 428-432, 438-450, 454-464, 470-481, 489-579, 583-584, 588-589, 593-596, 600-611, 655-662, 666-672, 678-681, 685-692, 696-699, 703-706, 710, 714, 718-729, 733-741, 745-748, 792->exit, 792->exit, 798->exit, 798->exit, 804->exit, 804->exit, 810->exit, 810->exit, 816->exit, 816->exit
/usr/lib/python3/dist-packages/cryptography/hazmat/backends/openssl/dh.py                153    122     36      0    20%   14-28, 32-33, 39-40, 43-53, 60, 63-78, 86-94, 98-103, 109-112, 116, 119-134, 148-171, 174-187, 190, 193-208, 220-223, 227, 230-244, 254, 257-274
/usr/lib/python3/dist-packages/cryptography/hazmat/backends/openssl/dsa.py               151    109     16      0    31%   20-32, 38-44, 50-55, 58, 61-63, 71-74, 77, 80-81, 87-88, 91-98, 105, 111-120, 125-127, 130-142, 155-171, 174-179, 182, 191-194, 200-208, 213-218, 223-235, 245-249, 252-257, 266-269
/usr/lib/python3/dist-packages/cryptography/hazmat/backends/openssl/ec.py                154    112     22      0    28%   22-23, 29-45, 55, 61-64, 71-80, 84-89, 95-97, 100, 103-105, 111-114, 117, 120-121, 129-135, 141, 144-147, 152-179, 182-201, 204-206, 212, 221-225, 231-237, 243, 246-252, 257-273, 280-285, 294-298
/usr/lib/python3/dist-packages/cryptography/hazmat/backends/openssl/encode_asn1.py       344    302     76      0    10%   31-37, 41-43, 50-53, 62-67, 71-73, 77, 84-97, 101-103, 110-115, 119-125, 129, 133-141, 145-153, 157-203, 207-222, 230-233, 237-239, 247, 251-279, 283-303, 307-317, 321-337, 341-348, 352-356, 360, 364-457, 461-468, 484-522, 526-538, 542-555, 559-569
/usr/lib/python3/dist-packages/cryptography/hazmat/backends/openssl/hashes.py             36     25      6      0    31%   16-37, 42-48, 51-52, 55-61
/usr/lib/python3/dist-packages/cryptography/hazmat/backends/openssl/hmac.py               44     31      8      0    29%   19-41, 46-53, 58-59, 62-68, 71-73
/usr/lib/python3/dist-packages/cryptography/hazmat/backends/openssl/rsa.py               250    204     54      0    18%   30-35, 39-68, 72-127, 131-155, 159-187, 191-216, 220-251, 255-269, 275-284, 287, 290, 302-313, 316, 319, 332-342, 347-349, 352-356, 359-365, 368-389, 403, 412-415, 421-431, 436-441, 446, 449-456, 462, 471-474
/usr/lib/python3/dist-packages/cryptography/hazmat/backends/openssl/utils.py              19     11      6      0    32%   15-28, 32-33, 40
/usr/lib/python3/dist-packages/cryptography/hazmat/backends/openssl/x25519.py             44     32      6      0    32%   16-17, 20-29, 35-36, 39-45, 48-71
/usr/lib/python3/dist-packages/cryptography/hazmat/backends/openssl/x509.py              302    223     60      0    25%   26-27, 30, 33-37, 40, 43, 46-48, 52-58, 64-69, 73-75, 78-86, 90-91, 95-96, 100-102, 106-108, 112-116, 122-128, 132-137, 143-148, 152-158, 161-170, 176-185, 189-193, 197, 206, 214-215, 218-222, 225, 228-236, 240-244, 250-256, 260-262, 266-268, 272-274, 278-283, 287-293, 296-307, 310-313, 316-317, 320-329, 332-336, 340, 343-355, 361-362, 365-370, 373, 376, 379-382, 386-388, 392-396, 402-408, 412-413, 416-427, 431-437, 441-446, 450-459, 467-470, 474-476, 480-483, 487-489, 495-499
/usr/lib/python3/dist-packages/cryptography/hazmat/bindings/__init__.py                    1      0      0      0   100%
/usr/lib/python3/dist-packages/cryptography/hazmat/bindings/openssl/__init__.py            1      0      0      0   100%
/usr/lib/python3/dist-packages/cryptography/hazmat/bindings/openssl/_conditional.py       58     25      0      0    57%   9, 43, 55, 61, 67, 73, 79, 93, 102, 110, 116, 130, 143, 149, 155, 171, 188, 194, 202, 208, 214, 227, 234, 240, 247
/usr/lib/python3/dist-packages/cryptography/hazmat/bindings/openssl/binding.py            83     22     18      2    72%   23-26, 29, 38-50, 55-67, 143, 54->55, 142->143
/usr/lib/python3/dist-packages/cryptography/hazmat/primitives/__init__.py                  1      0      0      0   100%
/usr/lib/python3/dist-packages/cryptography/hazmat/primitives/asymmetric/__init__.py      11      0      4      0   100%
/usr/lib/python3/dist-packages/cryptography/hazmat/primitives/asymmetric/dh.py            87     37     28      0    50%   15, 20-28, 31-34, 40, 43, 51-59, 62-65, 71, 74, 82-95, 98-101, 108, 111
/usr/lib/python3/dist-packages/cryptography/hazmat/primitives/asymmetric/dsa.py          106     48     36      0    48%   123, 127, 131-137, 141-147, 152-163, 170, 173-176, 179, 182, 191-200, 206, 209-212, 218, 221, 229-237, 243, 246-249, 254
/usr/lib/python3/dist-packages/cryptography/hazmat/primitives/asymmetric/ec.py           172     47     68      0    70%   259, 265, 269-278, 283-294, 297, 301-302, 309-322, 329-332, 340, 343, 346, 354-364, 367, 373-376, 382, 385
/usr/lib/python3/dist-packages/cryptography/hazmat/primitives/asymmetric/padding.py       46     20     18      0    53%   37-46, 54-59, 66-69, 73-79
/usr/lib/python3/dist-packages/cryptography/hazmat/primitives/asymmetric/rsa.py          162    102     66      0    29%   11-12, 112-119, 123-130, 135-169, 173-180, 187-193, 200, 208, 216, 231-265, 271-296, 307, 310-313, 324, 327, 340-347, 353, 356, 359-362, 365, 368
/usr/lib/python3/dist-packages/cryptography/hazmat/primitives/asymmetric/utils.py         26     13      4      0    43%   18-24, 28-29, 33-39, 43-49, 54-58
/usr/lib/python3/dist-packages/cryptography/hazmat/primitives/asymmetric/x25519.py        27     13      8      0    51%   18-24, 28, 35-41, 45-46, 50, 54
/usr/lib/python3/dist-packages/cryptography/hazmat/primitives/ciphers/__init__.py          3      0      0      0   100%
/usr/lib/python3/dist-packages/cryptography/hazmat/primitives/ciphers/algorithms.py      104     30     28      0    70%   16-20, 32, 36, 47, 51, 62-66, 70, 81, 85, 96, 100, 109, 113, 123, 127, 138, 142, 152-159, 165
/usr/lib/python3/dist-packages/cryptography/hazmat/primitives/ciphers/base.py            124     71     54      0    40%   98-112, 115-123, 126-129, 132-138, 144, 147-149, 152-154, 157-161, 169-173, 176-181, 188-189, 192-193, 196-201, 204-209, 212-225, 232-235
/usr/lib/python3/dist-packages/cryptography/hazmat/primitives/ciphers/modes.py           124     44     58      0    58%   67-68, 74-75, 81-82, 91-94, 106-112, 117-118, 137-140, 152-155, 167-170, 182-185, 190-192, 209-223, 229
/usr/lib/python3/dist-packages/cryptography/hazmat/primitives/constant_time.py            12      7      6      1    33%   14-24, 12->20
/usr/lib/python3/dist-packages/cryptography/hazmat/primitives/hashes.py                   98     28     40      0    67%   69-84, 89-93, 96-98, 103-107, 160-168, 181-189
/usr/lib/python3/dist-packages/cryptography/hazmat/primitives/kdf/__init__.py              7      0      2      0   100%
/usr/lib/python3/dist-packages/cryptography/hazmat/primitives/kdf/scrypt.py               39     26     18      0    26%   26-50, 53-59, 64-66
/usr/lib/python3/dist-packages/cryptography/hazmat/primitives/mac.py                       9      0      2      0   100%
/usr/lib/python3/dist-packages/cryptography/hazmat/primitives/serialization.py           112     67     34      0    35%   20, 24, 28, 32, 36, 40, 44-77, 81-87, 91-102, 106-129, 138-145, 154-156, 162, 166-169, 201-204
/usr/lib/python3/dist-packages/cryptography/utils.py                                     101     33     32      8    63%   23-24, 51-56, 61-71, 81, 87, 96, 106-109, 126-127, 131, 134-138, 141, 156-161, 41->44, 48->51, 59->65, 78->81, 86->87, 95->96, 104->108, 125->126
/usr/lib/python3/dist-packages/cryptography/x509/__init__.py                              69      0      0      0   100%
/usr/lib/python3/dist-packages/cryptography/x509/base.py                                 288    182    134      0    27%   29-34, 43, 47, 51, 55, 59, 63, 68-69, 363-364, 370-374, 380-389, 397-399, 406-413, 419-423, 433-437, 447-453, 463-475, 485-498, 508-522, 532-542, 552-570, 576-580, 583-587, 593-605, 611-623, 632-641, 650-653, 660-669, 675-677, 680-692, 697-705, 710-719, 725-732, 736
/usr/lib/python3/dist-packages/cryptography/x509/certificate_transparency.py              15      0      2      0   100%
/usr/lib/python3/dist-packages/cryptography/x509/extensions.py                           777    432    261      0    38%   32-48, 53-54, 59-60, 74, 77-81, 84-95, 100, 103, 106, 109, 119-122, 125-128, 131, 134, 137, 148-175, 179-180, 188, 195, 203-206, 214, 217-221, 237, 241, 246, 249-252, 255, 258, 266-273, 276, 279, 282, 285-288, 291, 294, 297, 302-309, 312, 318-321, 327, 330, 341-356, 362, 366-369, 372, 375, 383-386, 391-394, 397, 400, 403, 411-420, 423, 426, 429, 432-435, 438, 441, 444, 452-461, 464, 467, 470, 473-476, 479, 482, 485, 490-539, 542, 549-552, 560, 563-573, 599-621, 624, 631-634, 640, 643, 660-667, 670, 673, 676, 679-682, 685, 688, 691, 696-712, 715, 721-724, 730, 733-738, 746-754, 757, 763-766, 772, 775, 783-790, 793, 799-802, 808, 811, 822-828, 831, 834, 837, 840-843, 846, 849, 862-872, 875, 878, 881, 884-887, 890, 893, 896, 918-924, 927, 930-933, 936, 939, 951-965, 977-982, 986-991, 994-1001, 1011-1014, 1027, 1030, 1044-1075, 1078-1081, 1087, 1090-1093, 1099, 1105-1115, 1123-1133, 1140, 1144-1147, 1154, 1157, 1162-1169, 1172, 1175, 1181-1184, 1187, 1190-1193, 1196, 1199, 1202, 1210, 1213, 1216, 1219, 1222, 1225-1228, 1231, 1234, 1237, 1245, 1248, 1251, 1254, 1257, 1260-1263, 1266, 1269, 1272, 1280, 1283, 1286, 1289, 1292, 1295-1298, 1301, 1304, 1307, 1315-1318, 1321, 1324-1327, 1330, 1333, 1343-1346, 1349, 1354-1357, 1360, 1363, 1373-1382, 1385, 1388, 1391, 1394, 1404-1407, 1413, 1420-1423, 1426, 1429
/usr/lib/python3/dist-packages/cryptography/x509/general_name.py                         188    108     54      0    40%   37-38, 53-75, 81-83, 86-88, 91, 94-97, 100, 103, 108-112, 118-134, 140-142, 145, 148-151, 154, 157, 163-179, 185-187, 190-202, 212, 215-218, 221, 224, 230-233, 238, 241-244, 247, 250, 256-259, 264, 267-270, 273, 276, 282-297, 302, 305-308, 311, 314, 320-326, 332, 336-339, 342, 345
/usr/lib/python3/dist-packages/cryptography/x509/name.py                                 104     58     47      0    32%   34-70, 76-79, 85, 88, 91, 96-102, 105, 108-111, 114, 117, 120, 123, 126, 131-139, 145, 149, 152, 155-158, 161, 166, 169-171, 174, 177
/usr/lib/python3/dist-packages/cryptography/x509/oid.py                                  117     11     10      3    87%   24-25, 30, 35, 40, 45-48, 51, 54, 64, 29->30, 34->35, 39->40
/usr/lib/python3/dist-packages/idna/__init__.py                                            2      0      0      0   100%
/usr/lib/python3/dist-packages/idna/core.py                                              275    237    178      1     9%   37, 40, 43, 46, 51-53, 58-60, 66-121, 126-128, 133-137, 142-143, 148-187, 192-228, 233-255, 260-283, 288-304, 309-330, 337-361, 366-387, 12->16
/usr/lib/python3/dist-packages/idna/idnadata.py                                            4      0      0      0   100%
/usr/lib/python3/dist-packages/idna/intranges.py                                          29     24     14      0    12%   18-29, 32, 35, 40-53
/usr/lib/python3/dist-packages/idna/package_data.py                                        1      0      0      0   100%
/usr/lib/python3/dist-packages/numpy/__config__.py                                        32     12     10      0    48%   24-25, 28-37
/usr/lib/python3/dist-packages/numpy/__init__.py                                          58      7      4      2    85%   123, 127-131, 139-140, 179, 122->123, 175->179
/usr/lib/python3/dist-packages/numpy/_distributor_init.py                                  0      0      0      0   100%
/usr/lib/python3/dist-packages/numpy/_globals.py                                          11      1      2      1    85%   29, 28->29
/usr/lib/python3/dist-packages/numpy/_import_tools.py                                    226    204    118      1     7%   14-30, 35-50, 55-102, 109-128, 167-243, 247-255, 259-265, 268-269, 271-272, 274-275, 280-287, 290-308, 313-338, 343-349, 352, 351->352
/usr/lib/python3/dist-packages/numpy/add_newdocs.py                                      278      0      0      0   100%
/usr/lib/python3/dist-packages/numpy/compat/__init__.py                                    8      0      0      0   100%
/usr/lib/python3/dist-packages/numpy/compat/_inspect.py                                   70     19     44      7    68%   77, 88, 109, 124-125, 128-131, 138, 184-194, 76->77, 87->88, 108->109, 137->138, 170->exit, 170->exit, 170->exit
/usr/lib/python3/dist-packages/numpy/compat/py3k.py                                       78     53     22      2    27%   15-16, 28-30, 33-35, 38-40, 43, 46, 49, 55-76, 80, 83-86, 89-92, 98, 121-156, 18->55, 100->124
/usr/lib/python3/dist-packages/numpy/core/__init__.py                                     73      9      8      2    86%   17-26, 87-88, 91-93, 100, 11->10, 97->100
/usr/lib/python3/dist-packages/numpy/core/_internal.py                                   396    314    192      8    16%   16-17, 23, 26-51, 57-76, 89-129, 137, 154-198, 202, 204, 206, 208, 213, 215-216, 220, 223-226, 235, 238, 242-251, 254, 257-259, 262-264, 267, 270, 273, 276, 288-299, 314-317, 340-349, 373-378, 437-476, 479-616, 620-631, 635-653, 656-659, 663-665, 668, 678-688, 693-698, 718, 722, 20->23, 212->213, 214->215, 219->220, 221->223, 717->718, 719->722, 737->741
/usr/lib/python3/dist-packages/numpy/core/_methods.py                                     87     45     38      9    42%   26, 29, 32, 35, 38, 41, 47, 60, 65, 67-68, 72-75, 78, 82, 87-131, 134-144, 44->46, 46->47, 59->60, 63->70, 64->65, 66->67, 71->72, 76->82, 77->78
/usr/lib/python3/dist-packages/numpy/core/arrayprint.py                                  410    337    230      2    12%   23-29, 42-43, 46, 169-183, 210-218, 221-237, 240-243, 247-251, 254, 258-297, 303-341, 346-365, 383-390, 497-524, 528-532, 544-600, 604-615, 618-666, 669-699, 703-708, 713-723, 726-729, 735-736, 739-758, 763-764, 767-769, 774-775, 779-786, 792-802, 805, 812-827, 831-834, 839, 842-844, 849-850, 853-856, 20->26, 38->42
/usr/lib/python3/dist-packages/numpy/core/defchararray.py                                356    230     80      1    29%   46-47, 58-62, 69, 80-85, 93-95, 120, 144, 169, 193, 217, 241, 260, 282-286, 308-313, 339, 376-377, 407-412, 459, 504, 539, 583, 618, 653, 681, 706, 730, 754, 779, 804, 828, 853, 876, 906-911, 947-948, 1004-1005, 1039, 1070, 1103, 1132, 1162-1167, 1202, 1239, 1283-1284, 1317, 1346, 1377, 1425-1426, 1462-1463, 1501-1502, 1532-1537, 1573-1574, 1600-1603, 1633-1635, 1664-1666, 1815-1844, 1848-1849, 1852-1861, 1876, 1886, 1896, 1906, 1916, 1926, 1937, 1948, 1959, 1970, 1982, 1985, 2005, 2018, 2029, 2041, 2052, 2063, 2075, 2087, 2099, 2110, 2123, 2136, 2148, 2161, 2174, 2186, 2199, 2211, 2223, 2235, 2247, 2257, 2269, 2282, 2294, 2306, 2316, 2328, 2340, 2352, 2364, 2376, 2388, 2400, 2413, 2427, 2439, 2451, 2463, 2475, 2540-2627, 2678, 42->46
/usr/lib/python3/dist-packages/numpy/core/einsumfunc.py                                  311    298    194      0     3%   39-42, 88-102, 136-177, 215-256, 285-424, 537-699, 944-993
/usr/lib/python3/dist-packages/numpy/core/fromnumeric.py                                 277    211     68      2    20%   34-35, 43-52, 56-67, 134, 232, 354, 398, 449-455, 501, 550, 634-640, 706, 817-823, 907, 963, 1019, 1075, 1119-1140, 1192-1201, 1310-1314, 1373-1377, 1481-1484, 1562, 1603-1607, 1670, 1727, 1817-1833, 1846-1849, 1863-1867, 1879-1883, 1966-1970, 2046-2050, 2117, 2130, 2171, 2259-2271, 2360-2371, 2402-2405, 2506-2517, 2581, 2615-2618, 2667-2674, 2711-2720, 2789, 2803, 2899, 2901-2906, 3014-3026, 3132-3145, 2898->2899, 2900->2901
/usr/lib/python3/dist-packages/numpy/core/function_base.py                                69     59     24      0    11%   14-22, 101-143, 224-227, 318-351
/usr/lib/python3/dist-packages/numpy/core/getlimits.py                                   182     91     47      4    43%   20-23, 90, 94, 98, 102, 106, 274-291, 297-298, 377-407, 410-431, 434-445, 448-451, 510-511, 516, 520-528, 538, 548-555, 558, 28->31, 71->exit, 515->516, 537->538
/usr/lib/python3/dist-packages/numpy/core/info.py                                          3      0      0      0   100%
/usr/lib/python3/dist-packages/numpy/core/machar.py                                      187    178     70      2     4%   113-114, 117-325, 328-338, 342, 98->exit, 341->342
/usr/lib/python3/dist-packages/numpy/core/memmap.py                                       98     82     40      0    12%   205-287, 290-299, 316-317, 320-332, 335-338
/usr/lib/python3/dist-packages/numpy/core/numeric.py                                     562    408    210      9    23%   22, 41-42, 73, 143-147, 192-194, 253-255, 300-304, 362-364, 428-459, 531, 620, 657, 720-753, 815, 856, 896, 905-907, 974-975, 1065-1073, 1152-1154, 1279-1340, 1402-1429, 1471-1486, 1532-1542, 1594-1613, 1618, 1734-1816, 1825, 1829, 1874-1902, 1939, 1994-1997, 2068-2076, 2130-2132, 2159-2162, 2236-2272, 2313-2328, 2345-2347, 2355-2362, 2393-2394, 2459-2460, 2522-2562, 2598-2604, 2642-2651, 2828-2839, 2852, 2937-2944, 2989, 3067, 3072, 21->22, 36->41, 72->73, 376->375, 1824->1825, 1828->1829, 1993->1994, 3066->3067, 3071->3072
/usr/lib/python3/dist-packages/numpy/core/numerictypes.py                                388    113    156     14    67%   112, 209, 270-275, 310, 403, 464-470, 520-529, 549-557, 593-601, 642-657, 693-696, 726, 754-761, 775, 839-842, 873, 881, 933-939, 943-955, 1015-1036, 108->112, 206->209, 262->270, 309->310, 311->329, 313->329, 329->302, 398->403, 412->418, 463->464, 546->553, 860->exit, 872->873, 877->881
/usr/lib/python3/dist-packages/numpy/core/records.py                                     356    315    190      0     8%   76-81, 144-147, 152-166, 172-202, 205-213, 225, 228, 231-252, 256-266, 270-277, 282-288, 413-424, 427-430, 436-460, 470-496, 499-513, 517-544, 547-561, 579-627, 659-689, 697-710, 713-719, 746-788, 795-856
/usr/lib/python3/dist-packages/numpy/core/shape_base.py                                  111     95     77      3     9%   50-61, 100-113, 164-179, 237, 288-293, 348-361, 369, 407-416, 427-435, 586-659, 371->exit, 371->exit, 371->exit
/usr/lib/python3/dist-packages/numpy/ctypeslib.py                                        193    150     74      2    18%   63-64, 67-83, 119-163, 169-172, 177-182, 191, 195, 206-221, 279-327, 350, 381-405, 412-424, 436-443, 448-461, 66->67, 329->exit
/usr/lib/python3/dist-packages/numpy/fft/__init__.py                                       7      0      0      0   100%
/usr/lib/python3/dist-packages/numpy/fft/fftpack.py                                      131    106     48      0    14%   49-92, 96-99, 189-195, 283-288, 370-377, 461-467, 545-549, 605-610, 614-629, 633-639, 736, 833, 923, 1010, 1097-1102, 1139, 1228-1233, 1270
/usr/lib/python3/dist-packages/numpy/fft/helper.py                                        86     65     26      0    19%   66-78, 115-127, 166-175, 222-227, 271-281, 300-309, 313-315, 318-323
/usr/lib/python3/dist-packages/numpy/fft/info.py                                           2      0      0      0   100%
/usr/lib/python3/dist-packages/numpy/lib/__init__.py                                      42      0      0      0   100%
/usr/lib/python3/dist-packages/numpy/lib/_datasource.py                                  177    140     58      0    16%   79-91, 109-110, 113-114, 150-151, 205-211, 215-216, 222-223, 229-233, 243-246, 250-255, 261-273, 283-310, 325-341, 367-386, 392-400, 434-459, 490-501, 546-547, 550, 554-559, 563, 586, 620, 646, 662-666
/usr/lib/python3/dist-packages/numpy/lib/_iotools.py                                     392    337    207      3    10%   17, 22, 25-28, 35-39, 46-50, 67-84, 108-111, 141-152, 189, 193-215, 219-224, 228-235, 239-244, 248, 310-332, 361-402, 406, 436-442, 527, 539, 545, 555-557, 585-599, 605-688, 692-695, 699-721, 725, 749-771, 774-801, 833-853, 894-931, 13->17, 20->27, 526->527
/usr/lib/python3/dist-packages/numpy/lib/_version.py                                      77     61     42      0    13%   57-77, 81-98, 102-113, 116-135, 138, 141, 144, 147, 150, 153, 156
/usr/lib/python3/dist-packages/numpy/lib/arraypad.py                                     372    347    306      0     4%   48-58, 73-74, 99-107, 133-141, 164-174, 198-208, 235-264, 290-319, 346-370, 397-426, 453-478, 505-535, 562-587, 614-644, 672-696, 723-752, 789-838, 874-922, 955-986, 1026-1046, 1080-1087, 1291-1479
/usr/lib/python3/dist-packages/numpy/lib/arraysetops.py                                  143    131     62      0     6%   83-110, 208-248, 255-295, 332-338, 369-382, 451-488, 576-577, 614, 650-655
/usr/lib/python3/dist-packages/numpy/lib/arrayterator.py                                  73     60     43      0    11%   90-95, 98, 106-130, 137-139, 166-168, 178, 183-225
/usr/lib/python3/dist-packages/numpy/lib/financial.py                                    109     92     14      0    14%   28-33, 117-124, 209-217, 268-285, 370-380, 389, 416-417, 505-511, 519-521, 575-590, 653-662, 706-707, 730-738
/usr/lib/python3/dist-packages/numpy/lib/format.py                                       234    206    103      1     9%   162, 172-174, 192-199, 213-221, 246-253, 268-280, 300-330, 342, 358, 389, 422, 442-460, 469-515, 553-592, 623-683, 736-794, 806-822, 159->162
/usr/lib/python3/dist-packages/numpy/lib/function_base.py                               1312   1211    668      2     5%   37-38, 109-138, 202-210, 237-241, 261, 283, 306, 327, 348-361, 389-390, 419, 647-826, 881-1023, 1107-1149, 1212-1216, 1306-1347, 1388-1450, 1497, 1676-1845, 1915-1931, 2029-2075, 2109-2120, 2164-2175, 2201-2211, 2247-2262, 2271-2280, 2331, 2370-2374, 2409-2416, 2442-2445, 2463-2481, 2502-2510, 2515, 2521-2524, 2681-2709, 2716-2739, 2744-2800, 2804-2822, 2826-2885, 3002-3094, 3155-3177, 3270-3275, 3376-3381, 3476-3481, 3574-3579, 3646-3654, 3658, 3662, 3719-3727, 3851-3856, 3933-3935, 3961-3963, 3992-4017, 4101-4106, 4111-4160, 4271-4281, 4286-4425, 4490-4515, 4546-4548, 4656-4686, 4747-4891, 4982-5097, 5146-5152, 35->37, 4544->4546
/usr/lib/python3/dist-packages/numpy/lib/index_tricks.py                                 244    184    106      0    17%   83-96, 163-221, 224, 249-347, 350, 514, 528, 531, 567-571, 575, 583, 597-598, 662-665, 769-787, 854-855, 878-885
/usr/lib/python3/dist-packages/numpy/lib/info.py                                           3      0      0      0   100%
/usr/lib/python3/dist-packages/numpy/lib/mixins.py                                        62     13      6      1    74%   14-17, 23-25, 33-35, 43, 58, 158, 156->158
/usr/lib/python3/dist-packages/numpy/lib/nanfunctions.py                                 226    200    112      0     8%   64-77, 102-106, 135-147, 234-255, 342-363, 401-407, 446-452, 541-542, 606-607, 671-672, 733-734, 811-831, 839-856, 866-882, 892-899, 986-997, 1115-1131, 1142-1156, 1166-1187, 1281-1329, 1426-1432
/usr/lib/python3/dist-packages/numpy/lib/npyio.py                                        762    712    514      1     4%   28-29, 72, 75-78, 86, 97-101, 171-186, 189, 192, 199-205, 208, 219-237, 240, 247, 251-252, 256, 260, 263, 368-432, 486-512, 593, 657, 663-715, 721-745, 851-1060, 1178-1264, 1322-1347, 1516-1989, 2005-2006, 2022-2023, 2047-2055, 2081-2093, 25->28
/usr/lib/python3/dist-packages/numpy/lib/polynomial.py                                   399    336    174      0    11%   124-151, 203-235, 304-328, 382-396, 545-611, 673-681, 727-741, 773-787, 839-844, 891-909, 913-936, 1044, 1049-1050, 1055, 1061, 1066, 1072, 1075, 1083-1107, 1110-1113, 1116-1118, 1121, 1124-1178, 1181, 1184, 1187, 1190-1194, 1197-1201, 1204-1205, 1208-1209, 1212-1217, 1220-1221, 1224-1225, 1228-1232, 1237-1241, 1246-1250, 1253-1255, 1259-1264, 1267-1275, 1278, 1291, 1304
/usr/lib/python3/dist-packages/numpy/lib/scimath.py                                       55     35      8      0    32%   91-95, 119-122, 145-148, 171-174, 215-216, 261-262, 309-310, 342-344, 389-390, 431-433, 475-476, 519-520, 565-566
/usr/lib/python3/dist-packages/numpy/lib/shape_base.py                                   183    157     85      0    10%   98-151, 219-237, 298-310, 347-353, 409, 412-417, 439-465, 534-543, 600-605, 654-656, 699-701, 708-713, 720-725, 795-823, 892-914
/usr/lib/python3/dist-packages/numpy/lib/stride_tricks.py                                 60     49     30      0    12%   21-22, 26-35, 95-112, 116-132, 173, 180-192, 243-257
/usr/lib/python3/dist-packages/numpy/lib/twodim_base.py                                  123    100     42      0    14%   26-32, 79-82, 133-136, 178-188, 245-259, 301-318, 358-367, 402-405, 430-433, 509-524, 639-650, 718-720, 800, 826-828, 910, 940-942
/usr/lib/python3/dist-packages/numpy/lib/type_check.py                                   104     81     34      0    17%   60-72, 101-104, 142-145, 180-183, 215-219, 249, 283-288, 323, 328-330, 385-400, 447-456, 480, 557, 607-623
/usr/lib/python3/dist-packages/numpy/lib/ufunclike.py                                     28     13      6      0    44%   22-34, 75-82, 141, 202
/usr/lib/python3/dist-packages/numpy/lib/utils.py                                        515    433    234      4    13%   41-49, 87-88, 100-101, 106, 112-113, 171, 173, 218-235, 287-337, 349-365, 373-389, 410-440, 494-645, 688-693, 751-831, 855-971, 974-980, 1013, 1017-1019, 1022, 1026, 1029, 1032, 1035, 1038, 1042, 1045, 1048-1054, 1057-1064, 1067, 1114-1116, 1139-1160, 105->106, 170->171, 172->173, 179->exit
/usr/lib/python3/dist-packages/numpy/linalg/__init__.py                                    6      0      0      0   100%
/usr/lib/python3/dist-packages/numpy/linalg/info.py                                        2      0      0      0   100%
/usr/lib/python3/dist-packages/numpy/linalg/linalg.py                                    601    529    240      0     9%   90, 93, 96, 99, 102-104, 107-109, 112, 125, 128, 132, 141-161, 169-178, 181-190, 193-195, 199-201, 205-207, 210-212, 215-217, 221, 224-226, 278-298, 360-377, 433-444, 506-514, 592-600, 721-813, 886-904, 978-995, 998-1000, 1125-1144, 1259-1279, 1367-1403, 1484-1489, 1568-1574, 1642-1657, 1735-1750, 1799-1809, 1897-1981, 2007-2011, 2151-2257, 2338-2370, 2381-2391, 2411-2432, 2437-2440
/usr/lib/python3/dist-packages/numpy/ma/__init__.py                                       11      0      0      0   100%
/usr/lib/python3/dist-packages/numpy/ma/core.py                                         2420   1881   1030     13    16%   33, 52, 110-121, 130, 132, 248-269, 273-280, 331-343, 394-406, 424-435, 456-467, 482-516, 579-581, 590-594, 622-626, 664-672, 682-699, 745-751, 806-814, 838, 846-847, 865-866, 882-887, 902-903, 918-919, 954-995, 998, 1042-1081, 1088-1111, 1118-1136, 1143-1147, 1150, 1190-1227, 1230, 1319-1346, 1358-1360, 1393, 1454, 1509-1512, 1577-1580, 1654-1665, 1711-1715, 1755-1781, 1816-1838, 1843-1846, 1952-1967, 1993, 2019, 2045, 2071, 2097, 2125-2127, 2163-2167, 2203-2207, 2261-2268, 2340-2350, 2380-2392, 2419, 2426, 2433, 2440, 2443, 2458-2465, 2504-2510, 2540-2566, 2597-2609, 2666-2672, 2675, 2678-2689, 2693-2695, 2719-2726, 2808-2930, 2938-2957, 2965-3027, 3036-3085, 3135-3167, 3193-3207, 3220-3327, 3337-3416, 3419-3427, 3434-3496, 3506, 3517-3520, 3529, 3545-3546, 3560-3561, 3579-3582, 3610-3613, 3623, 3630, 3634-3635, 3664-3673, 3705-3712, 3758-3791, 3815-3818, 3876-3886, 3893-3937, 3944-3959, 3964-3973, 3986-4026, 4039, 4052, 4059-4061, 4070, 4077-4079, 4086, 4090-4092, 4101, 4108-4110, 4117-4119, 4126, 4133-4135, 4142, 4149-4151, 4158, 4165-4175, 4182-4191, 4198-4207, 4214-4225, 4232-4243, 4250-4261, 4268-4282, 4289-4295, 4302-4307, 4338-4340, 4373-4375, 4435-4476, 4517-4523, 4576-4582, 4597-4600, 4648-4670, 4694-4696, 4723, 4749-4763, 4779-4793, 4894, 4901-4908, 4948, 4980-5001, 5032-5039, 5059-5080, 5105-5112, 5140-5160, 5193-5200, 5217-5263, 5280-5288, 5301-5313, 5379-5393, 5431-5434, 5468-5471, 5538-5555, 5585-5617, 5672-5676, 5706-5739, 5765-5772, 5775-5778, 5781-5784, 5789-5810, 5849-5871, 5879, 5919, 5934, 5975-5987, 5996-5998, 6012-6015, 6021, 6026-6033, 6041-6043, 6053-6069, 6073, 6082-6097, 6100-6104, 6107-6121, 6127-6136, 6139, 6161, 6174-6184, 6241, 6262, 6265, 6268, 6271, 6274, 6279, 6296, 6348-6353, 6379-6386, 6390-6420, 6424-6436, 6439-6446, 6451-6458, 6468-6473, 6509-6520, 6555-6556, 6576-6608, 6615-6625, 6630-6640, 6657, 6701-6718, 6733-6736, 6779-6786, 6801-6807, 6822-6828, 6844-6847, 6868-6886, 6923-6926, 6941-6945, 7003-7009, 7021-7024, 7034, 7041, 7047, 7105-7138, 7186-7213, 7240-7246, 7327-7340, 7407-7427, 7442-7448, 7456-7466, 7476-7488, 7516, 7544, 7589-7602, 7677-7705, 7753-7754, 7803-7805, 7825-7827, 7843, 7866-7868, 7887, 7891, 7957, 7991-8002, 8058, 30->33, 49->52, 129->130, 131->132, 203->208, 837->838, 2611->2613, 3563->exit, 3584->exit, 3615->exit, 5816->exit, 6503->exit, 7982->7987
/usr/lib/python3/dist-packages/numpy/ma/extras.py                                        563    472    231      2    12%   50, 104-105, 155-157, 210-212, 267, 270, 280-288, 298-301, 314-326, 341-349, 371-376, 383-459, 467-485, 570-614, 683-697, 702-793, 817-836, 889-891, 906-909, 923-926, 971, 1016, 1035-1049, 1064-1073, 1099-1105, 1119-1132, 1154-1174, 1195-1196, 1211, 1234-1239, 1253-1287, 1344-1360, 1411-1447, 1468, 1472-1475, 1548-1555, 1600-1605, 1650-1660, 1703-1719, 1728-1748, 1784-1787, 1823-1826, 1839-1843, 1853-1880, 262->267, 487->519
/usr/lib/python3/dist-packages/numpy/matrixlib/__init__.py                                 6      0      0      0   100%
/usr/lib/python3/dist-packages/numpy/matrixlib/defmatrix.py                              267    213    116      0    14%   12-30, 64, 137-171, 213-256, 259-278, 281-304, 307-312, 315, 318-319, 322, 325-326, 329, 332-339, 342, 348-355, 361-364, 388, 423, 476, 515, 549, 583, 617, 650, 673, 713, 748, 787, 822, 861, 894, 933-938, 967, 994, 1033, 1066, 1097-1100, 1109-1130, 1186-1208
/usr/lib/python3/dist-packages/numpy/polynomial/__init__.py                               10      0      0      0   100%
/usr/lib/python3/dist-packages/numpy/polynomial/_polybase.py                             316    235     82      0    20%   75, 79, 83, 87, 91, 95, 99, 103, 107, 111, 115, 119, 123, 127, 131, 149-154, 172, 190, 208, 236-244, 247-260, 263-268, 271-274, 279-283, 286, 291-293, 296, 299, 304, 307, 310-317, 320-327, 330-337, 341, 347-350, 353-356, 359-362, 365-374, 377-379, 382-386, 389-393, 396-400, 404, 409, 412-415, 418-421, 424-432, 438-443, 446, 461, 474, 499, 521-522, 544-551, 585-591, 620, 647-653, 673-675, 689-690, 718-722, 795-810, 838-851, 878-884, 915-923, 961-965
/usr/lib/python3/dist-packages/numpy/polynomial/chebyshev.py                             458    396    174      0    10%   133-136, 158-161, 188, 224-255, 283-287, 314-321, 370-375, 422-436, 487-490, 542-556, 599-606, 651-659, 687-699, 743-748, 798-814, 849-866, 929-962, 1050-1090, 1155-1177, 1226-1233, 1286-1288, 1339-1347, 1403-1406, 1444-1461, 1514-1524, 1578-1589, 1711-1785, 1815-1830, 1877-1886, 1924-1931, 1958-1959, 1989-1996, 2022-2029
/usr/lib/python3/dist-packages/numpy/polynomial/hermite.py                               417    362    172      0     9%   119-124, 165-182, 232-235, 288-302, 343-350, 391-399, 437-448, 490-514, 563-581, 619-635, 693-722, 808-844, 916-940, 989-996, 1049-1051, 1102-1110, 1166-1169, 1216-1232, 1285-1295, 1349-1360, 1487-1561, 1591-1606, 1656-1665, 1697-1708, 1747-1775, 1802-1803
/usr/lib/python3/dist-packages/numpy/polynomial/hermite_e.py                             414    359    172      0     9%   120-125, 166-182, 233-236, 289-303, 344-351, 392-400, 438-449, 491-515, 562-580, 618-634, 692-721, 807-843, 915-938, 987-994, 1047-1049, 1100-1108, 1164-1167, 1214-1229, 1282-1292, 1346-1357, 1484-1558, 1589-1604, 1654-1663, 1695-1706, 1745-1773, 1799-1800
/usr/lib/python3/dist-packages/numpy/polynomial/laguerre.py                              403    349    166      0     9%   119-124, 165-179, 229-232, 285-299, 341-348, 389-397, 435-447, 489-513, 560-578, 616-632, 690-721, 808-845, 917-940, 989-996, 1049-1051, 1102-1110, 1166-1169, 1216-1231, 1284-1294, 1348-1359, 1486-1560, 1589-1604, 1654-1663, 1702-1727, 1753-1754
/usr/lib/python3/dist-packages/numpy/polynomial/legendre.py                              411    357    170      0     9%   145-150, 197-211, 261-264, 316-330, 373-380, 425-433, 465-479, 523-547, 597-615, 650-666, 729-762, 850-890, 955-978, 1027-1034, 1087-1089, 1140-1148, 1204-1207, 1245-1262, 1315-1325, 1379-1390, 1514-1588, 1618-1632, 1679-1688, 1727-1756, 1783-1784
/usr/lib/python3/dist-packages/numpy/polynomial/polynomial.py                            340    289    154      0    10%   126-129, 190-204, 241-248, 286-294, 322-330, 366-368, 405-425, 460-476, 531-562, 642-680, 764-776, 854-864, 914-921, 974-976, 1027-1035, 1091-1094, 1135-1150, 1198-1210, 1264-1277, 1422-1496, 1525-1536, 1585-1594
/usr/lib/python3/dist-packages/numpy/polynomial/polyutils.py                              65     48     33      0    17%   115-121, 165-188, 235-243, 283-289, 332-336, 401-403
/usr/lib/python3/dist-packages/numpy/random/__init__.py                                   13      1      0      0    92%   118
/usr/lib/python3/dist-packages/numpy/random/info.py                                        3      0      0      0   100%
/usr/lib/python3/dist-packages/numpy/testing/__init__.py                                   6      0      0      0   100%
/usr/lib/python3/dist-packages/numpy/testing/decorators.py                                64     56     30      0     9%   55-56, 86-89, 120-165, 198-220, 247-265
/usr/lib/python3/dist-packages/numpy/testing/nosetester.py                               167    134     62      5    17%   34-56, 94-107, 162, 169, 172-176, 183, 206-224, 227-244, 253-254, 270-297, 364-444, 502-515, 520, 161->162, 165->172, 168->169, 182->183, 519->520
/usr/lib/python3/dist-packages/numpy/testing/utils.py                                    791    701    318      4     8%   25, 56-72, 86-92, 106-110, 124-129, 143-148, 158-164, 169-198, 208-221, 234-259, 264-287, 325-416, 447-457, 525-579, 639-677, 683-786, 852-853, 929-960, 1031-1032, 1039, 1069-1109, 1134-1155, 1159-1160, 1188-1190, 1213-1222, 1248-1269, 1305-1317, 1325-1337, 1385-1394, 1447-1458, 1497-1503, 1532-1557, 1565-1572, 1578-1584, 1608-1614, 1617, 1648-1653, 1656-1670, 1673-1676, 1681-1687, 1724-1730, 1735-1741, 1771-1777, 1805-1845, 1861-1865, 1882-1887, 1934-1936, 1939-1944, 1947-1952, 2027-2034, 2037-2046, 2049-2071, 2093, 2123, 2127-2156, 2159-2164, 2168-2216, 2223-2228, 22->25, 167->169, 201->216, 224->248
/usr/lib/python3/dist-packages/numpy/version.py                                            7      1      2      1    78%   12, 11->12
/usr/lib/python3/dist-packages/requests/__init__.py                                       50      7      2      1    85%   77-78, 85, 113-116, 54->58
/usr/lib/python3/dist-packages/requests/__version__.py                                    10      0      0      0   100%
/usr/lib/python3/dist-packages/requests/_internal_utils.py                                16     12      4      0    20%   19-27, 37-42
/usr/lib/python3/dist-packages/requests/adapters.py                                      214    163     74      0    18%   44, 56, 74, 78, 113-126, 129, 135-141, 157-161, 176-199, 213-250, 263-288, 299-311, 319-321, 337-350, 364, 379-386, 405-525
/usr/lib/python3/dist-packages/requests/api.py                                            22     12      0      0    45%   57-58, 71-72, 84-85, 97-98, 112, 126, 140, 152
/usr/lib/python3/dist-packages/requests/auth.py                                          162    129     52      0    15%   38-69, 76, 83-84, 87, 93, 96-97, 104-105, 112-115, 119-125, 132-215, 219-220, 231-264, 268-284, 287, 293
/usr/lib/python3/dist-packages/requests/certs.py                                           4      1      2      1    67%   18, 17->18
/usr/lib/python3/dist-packages/requests/compat.py                                         37     15      4      2    59%   30-31, 38-54, 37->38, 56->exit
/usr/lib/python3/dist-packages/requests/cookies.py                                       236    175     98      0    18%   22-23, 39-41, 44, 47, 50, 55-61, 67, 70, 73, 77, 80, 83, 87, 91, 95, 110, 113, 116, 126-133, 142-144, 152-163, 197-200, 208-217, 225-226, 234, 242-243, 251, 259-260, 269, 273-277, 281-285, 293-298, 307-314, 317-320, 329, 336, 342, 345-347, 351-355, 369-375, 389-400, 404-407, 411-413, 417-419, 423-434, 443-469, 475-486, 511-520, 529-542
/usr/lib/python3/dist-packages/requests/exceptions.py                                     34      6      2      0    78%   19-25
/usr/lib/python3/dist-packages/requests/hooks.py                                          15     11     10      0    16%   18, 25-34
/usr/lib/python3/dist-packages/requests/models.py                                        443    370    196      0    11%   65-80, 91-107, 119-167, 174-180, 187-191, 223-241, 244, 248-261, 284-297, 304-315, 318, 321-329, 333-335, 339-345, 354-431, 436-442, 451-511, 515-524, 530-546, 559-566, 573-575, 589-633, 636, 639, 644-647, 653-658, 661, 671, 681, 685, 696-700, 707, 712, 717, 722, 741-777, 787-808, 814-828, 844-866, 875-892, 898-910, 915-935, 943-948
/usr/lib/python3/dist-packages/requests/packages.py                                        6      0      6      0   100%
/usr/lib/python3/dist-packages/requests/sessions.py                                      275    223     96      1    14%   42-45, 56-78, 87-93, 106-117, 121-133, 139-241, 248-261, 275-302, 308-324, 357-405, 408, 411, 423-451, 494-522, 532-533, 543-544, 554-555, 567, 578, 589, 599, 608-672, 681-700, 709-715, 719-720, 727-731, 734-735, 738-739, 749, 41->42
/usr/lib/python3/dist-packages/requests/status_codes.py                                    8      0      6      0   100%
/usr/lib/python3/dist-packages/requests/structures.py                                     40     19      8      0    44%   43-46, 51, 54, 57, 60, 63, 67, 74-79, 83, 86, 97, 102, 105
/usr/lib/python3/dist-packages/requests/utils.py                                         400    336    178      1    11%   45-87, 93-96, 100-157, 163-208, 213-216, 235-241, 259-268, 295-300, 326-335, 347-361, 371-376, 387, 395-405, 417-428, 434-446, 451-456, 471-492, 506-521, 532-543, 554-558, 568-569, 576-580, 589-604, 615-626, 635-683, 692-695, 704-721, 730, 737, 753-775, 791-813, 822-830, 839-846, 861-871, 881-889, 896-904, 42->45
/usr/lib/python3/dist-packages/simplejson/__init__.py                                     80     57     30      0    21%   120-122, 126-130, 248-279, 372-385, 457, 514-535, 539-562, 577
/usr/lib/python3/dist-packages/simplejson/compat.py                                       34     15      4      2    55%   5-17, 23, 26, 4->5, 20->23
/usr/lib/python3/dist-packages/simplejson/decoder.py                                     228    181     96      2    15%   14-15, 26-27, 60-133, 145-234, 237-270, 368-374, 387-400, 25->26, 348->350
/usr/lib/python3/dist-packages/simplejson/encoder.py                                     387    332    258      4    10%   13-14, 47-62, 69-98, 239, 242, 244, 246, 267, 279-297, 309-375, 390-394, 397-402, 426-704, 238->239, 241->242, 243->244, 245->246
/usr/lib/python3/dist-packages/simplejson/errors.py                                       29     23      6      0    17%   7-12, 16-23, 41-50, 53
/usr/lib/python3/dist-packages/simplejson/raw_json.py                                      3      1      0      0    67%   9
/usr/lib/python3/dist-packages/simplejson/scanner.py                                      64     53     24      0    12%   9-10, 21-83
/usr/lib/python3/dist-packages/six.py                                                    450    197    136     21    52%   50, 52, 60-62, 64, 66-68, 72, 98-99, 112, 120-121, 131-133, 145, 154-157, 192-193, 222-223, 306, 486, 494, 499-505, 517-523, 528-530, 536-538, 543, 548, 552-566, 581, 584, 587, 590, 598-614, 626, 629, 642-643, 648-667, 673, 677, 681, 688-711, 720, 736-737, 742-794, 796-803, 808-814, 824-832, 841-844, 859-866, 887-888, 40->49, 55->60, 107->112, 143->154, 144->145, 305->306, 508->517, 541->552, 579->598, 624->648, 641->642, 684->699, 719->720, 728->736, 741->742, 795->796, 807->808, 840->841, 874->879, 879->891, 885->887
/usr/lib/python3/dist-packages/urllib3/__init__.py                                        38     12      0      0    68%   28-31, 66-72, 97
/usr/lib/python3/dist-packages/urllib3/_collections.py                                   177    130     65      1    20%   5-11, 16-17, 44-48, 52-55, 58-70, 73-77, 80-81, 84, 87-94, 97-98, 136-144, 147-148, 151-152, 155, 158, 161-165, 169, 172-173, 178, 182-183, 192-200, 203-206, 217-222, 229-248, 253-260, 271, 274-279, 282-284, 288-291, 295-297, 300, 308-319, 171->172
/usr/lib/python3/dist-packages/urllib3/connection.py                                     160    108     48      1    25%   16-20, 26-28, 107-125, 132-152, 155-163, 166-167, 174-205, 217-226, 229-238, 268-280, 284-348, 355-365, 373, 368->373
/usr/lib/python3/dist-packages/urllib3/connectionpool.py                                 317    257    107      1    14%   48, 68-73, 76, 80, 83-85, 91, 167-200, 206-213, 227-251, 267-281, 287, 291, 295-303, 308-320, 338-405, 408, 415-424, 431-445, 541-734, 769-783, 791-800, 808-818, 824-842, 848-855, 883-888, 905-907, 46->48
/usr/lib/python3/dist-packages/urllib3/contrib/__init__.py                                 0      0      0      0   100%
/usr/lib/python3/dist-packages/urllib3/contrib/pyopenssl.py                              230    215     84      0     5%   63-455
/usr/lib/python3/dist-packages/urllib3/contrib/socks.py                                   71     62     20      0    10%   41-188
/usr/lib/python3/dist-packages/urllib3/exceptions.py                                      96     21      0      0    78%   21-22, 26, 32-33, 37, 77-82, 89-91, 144-147, 216, 219, 233-234, 240-241
/usr/lib/python3/dist-packages/urllib3/fields.py                                          69     56     29      0    13%   17-19, 35-47, 64-69, 89-103, 114, 127-136, 142-155, 171-178
/usr/lib/python3/dist-packages/urllib3/filepost.py                                        39     27     20      0    20%   18, 29-38, 53-56, 70-94
/usr/lib/python3/dist-packages/urllib3/packages/__init__.py                                8      2      0      0    75%   10-11
/usr/lib/python3/dist-packages/urllib3/packages/backports/__init__.py                      0      0      0      0   100%
/usr/lib/python3/dist-packages/urllib3/packages/backports/makefile.py                     36     32     20      0     7%   19-53
/usr/lib/python3/dist-packages/urllib3/packages/ssl_match_hostname/__init__.py            11      6      2      1    46%   7, 10-16, 6->7
/usr/lib/python3/dist-packages/urllib3/poolmanager.py                                    164    125     60      0    17%   78-103, 152-160, 163, 166-168, 180-195, 204, 217-227, 236-240, 250-264, 277-278, 289-299, 310-349, 382-399, 403-407, 415-423, 427-436, 440
/usr/lib/python3/dist-packages/urllib3/request.py                                         38     27     14      0    21%   42, 47, 61-68, 78-87, 127-148
/usr/lib/python3/dist-packages/urllib3/response.py                                       308    255    138      0    12%   25-27, 30, 33-52, 58, 61, 64-66, 70-73, 118-159, 169-172, 175-179, 184-188, 192, 200, 206-248, 256-258, 264-276, 283-287, 298-344, 367-413, 431-439, 450-468, 472, 475, 479, 483-487, 491-498, 501-506, 510-511, 515, 519-524, 533, 538-547, 550-569, 580-626
/usr/lib/python3/dist-packages/urllib3/util/__init__.py                                   10      0      0      0   100%
/usr/lib/python3/dist-packages/urllib3/util/connection.py                                 66     46     28      2    23%   17-29, 50-85, 89-93, 101-104, 122-123, 112->125, 125->127
/usr/lib/python3/dist-packages/urllib3/util/request.py                                    45     36     24      0    13%   47-74, 82-92, 106-117
/usr/lib/python3/dist-packages/urllib3/util/response.py                                   32     26      8      0    15%   15-35, 54-66, 78-81
/usr/lib/python3/dist-packages/urllib3/util/retry.py                                     148    102     60      1    23%   163-164, 176-187, 192-201, 209-215, 219-231, 236-241, 244-249, 252-255, 266-271, 277, 283, 289-292, 301-307, 312-317, 331-392, 395, 162->163
/usr/lib/python3/dist-packages/urllib3/util/selectors.py                                 363    297    142      6    14%   18-19, 31-32, 35, 38, 44-53, 63-124, 134, 137, 140-144, 147, 167-170, 180-190, 194-204, 208-224, 229-243, 248, 253-254, 258-264, 268, 273-276, 279, 282, 290-292, 295-300, 303-306, 310, 314-333, 340-341, 344-351, 354-356, 361-370, 373-386, 393-394, 397, 400-407, 410-416, 419-449, 452-453, 457-536, 540, 548-559, 570-581, 58->71, 286->336, 336->389, 389->456, 456->457, 539->540
/usr/lib/python3/dist-packages/urllib3/util/ssl_.py                                      126     98     44      0    16%   32-35, 46-47, 52-54, 92-150, 163-176, 191-200, 207-216, 254-279, 303-341
/usr/lib/python3/dist-packages/urllib3/util/timeout.py                                    59     42     22      0    21%   94-97, 100, 114-138, 154, 168, 177-180, 190-193, 205-211, 230-242
/usr/lib/python3/dist-packages/urllib3/util/url.py                                       103     87     58      0    10%   24-30, 36, 41-46, 51-53, 74-93, 96, 115-129, 154-222, 229-230
/usr/lib/python3/dist-packages/urllib3/util/wait.py                                       16     12     10      0    15%   13-25, 33, 40
----------------------------------------------------------------------------------------------------------------------------------
TOTAL                                                                                  38038  28334  14847    217    20%
