.......
----------------------------------------------------------------------
Ran 7 tests in 0.000s

OK
Name             Stmts   Miss Branch BrPart  Cover   Missing
------------------------------------------------------------
Netflix.py          63      6     12      3    88%   23-24, 97-98, 111, 113, 22->23, 110->111, 112->113
TestNetflix.py      37      0      0      0   100%
------------------------------------------------------------
TOTAL              100      6     12      3    92%

